R for ETL
…
Example - Fuzzy joins

library(fuzzyjoin)
colours() %>% 
  data_frame(name=.) ->
  r_colours
colours %>% 
  stringdist_left_join(r_colours)
## # A tibble: 181 x 5
##       id name.x  rgb    is_trans name.y
##    <int> <chr>   <chr>  <chr>    <chr> 
##  1    -1 Unknown 0033B2 f        <NA>  
##  2     0 Black   05131D f        black 
##  3     1 Blue    0055BF f        blue  
##  4     1 Blue    0055BF f        blue1 
##  5     1 Blue    0055BF f        blue2 
##  6     1 Blue    0055BF f        blue3 
##  7     1 Blue    0055BF f        blue4 
##  8     1 Blue    0055BF f        plum  
##  9     2 Green   237841 f        green 
## 10     2 Green   237841 f        green1
## # ... with 171 more rows

Example - Cleanse all text data

"data/world-development-indicators/series.csv" %>% 
  read_csv() %>% 
  mutate_if(is.character,
            ~str_replace_all(
              str_trim(
                str_to_lower(.)
                ),
              "[:punct:]",""))
## # A tibble: 1,345 x 20
##    SeriesCode  Topic  IndicatorName ShortDefinition LongDefinition        
##    <chr>       <chr>  <chr>         <chr>           <chr>                 
##  1 bnkltdinvcd econo~ foreign dire~ <NA>            foreign direct invest~
##  2 bxkltdinvw~ econo~ foreign dire~ <NA>            foreign direct invest~
##  3 bxkltdinvc~ econo~ foreign dire~ <NA>            foreign direct invest~
##  4 bmkltdinvg~ econo~ foreign dire~ <NA>            foreign direct invest~
##  5 bntrfkogtcd econo~ net capital ~ <NA>            net capital account r~
##  6 bnkaceomscd econo~ net errors a~ <NA>            net errors and omissi~
##  7 bnfintotlcd econo~ net financia~ <NA>            the net financial acc~
##  8 bxpeftotlc~ econo~ portfolio eq~ <NA>            portfolio equity incl~
##  9 bnkltptxlcd econo~ portfolio in~ <NA>            portfolio investment ~
## 10 bxkltdremc~ econo~ primary inco~ <NA>            primary income on for~
## # ... with 1,335 more rows, and 15 more variables: UnitOfMeasure <chr>,
## #   Periodicity <chr>, BasePeriod <chr>, OtherNotes <chr>,
## #   AggregationMethod <chr>, LimitationsAndExceptions <chr>,
## #   NotesFromOriginalSource <chr>, GeneralComments <chr>, Source <chr>,
## #   StatisticalConceptAndMethodology <chr>, DevelopmentRelevance <chr>,
## #   RelatedSourceLinks <chr>, OtherWebLinks <chr>,
## #   RelatedIndicators <chr>, LicenseType <chr>
…
